<?xml version="1.0" encoding="UTF-8" standalone="no"?>
<svg
   xmlns:dc="http://purl.org/dc/elements/1.1/"
   xmlns:cc="http://creativecommons.org/ns#"
   xmlns:rdf="http://www.w3.org/1999/02/22-rdf-syntax-ns#"
   xmlns:svg="http://www.w3.org/2000/svg"
   xmlns="http://www.w3.org/2000/svg"
   xmlns:sodipodi="http://sodipodi.sourceforge.net/DTD/sodipodi-0.dtd"
   xmlns:inkscape="http://www.inkscape.org/namespaces/inkscape"
   viewBox="0 0 36 36"
   version="1.1"
   id="svg4759"
   sodipodi:docname="breast-feeding-man.svg"
   inkscape:version="0.92.4 (5da689c313, 2019-01-14)">
  <metadata
     id="metadata4765">
    <rdf:RDF>
      <cc:Work
         rdf:about="">
        <dc:format>image/svg+xml</dc:format>
        <dc:type
           rdf:resource="http://purl.org/dc/dcmitype/StillImage" />
        <dc:title></dc:title>
      </cc:Work>
    </rdf:RDF>
  </metadata>
  <defs
     id="defs4763" />
  <sodipodi:namedview
     pagecolor="#ffffff"
     bordercolor="#666666"
     borderopacity="1"
     objecttolerance="10"
     gridtolerance="10"
     guidetolerance="10"
     inkscape:pageopacity="0"
     inkscape:pageshadow="2"
     inkscape:window-width="1920"
     inkscape:window-height="1027"
     id="namedview4761"
     showgrid="false"
     inkscape:zoom="6.5555556"
     inkscape:cx="-27.610169"
     inkscape:cy="34.98218"
     inkscape:window-x="-8"
     inkscape:window-y="-8"
     inkscape:window-maximized="1"
     inkscape:current-layer="svg4759" />
  <path
     d="M24.053 16.778h-4.282c-1.793 0-4.416 1.504-5.47 2.451-.953.856-4.246 3.302-4.246 5.802 0 4.716 5.38 10.969 5.38 10.969h9.952s2-8.719 2-15.889c0-1.736-1.541-3.333-3.334-3.333z"
     id="path4733"
     fill="#9268CA"
     style="fill:#4289c1;fill-opacity:1" />
  <path
     fill="#FFDC5D"
     d="M22.538 17.493c-.178 1.084-1.277 3.246-4.038 6.007-2.5 2.5-5.5 3-5.5 3s-3.457.765-2.703-2.25c.44-1.762 2.616-1.833 4.156-3.922 1.545-2.096 4.842-3.087 6.047-3.328 2.5-.5 2.038.493 2.038.493z"
     id="path4735" />
  <path
     d="m 14.435,24.082 c -0.712,0.558 -1.376,0.494 -1.859,0.094 -0.796,-0.66 -2.004,-0.693 -2.092,-0.426 0.023,1.026 1.116,1.483 1.316,2.556 0.007,0.037 0.018,0.074 0.027,0.112 C 12.393,26.61 13,26.5 13,26.5 c 0,0 0.572,-0.111 1.139,-0.309 0.719,-2.353 1.709,-2.342 2.065,-3.144 0.119,-0.27 -1.163,0.56 -1.769,1.035 z m 4.547288,-13.120373 c 0.724,1.74 0.787119,0.641017 -0.939881,1.357017 -1.728,0.718 1.148288,1.454559 0.426288,-0.285441 -0.723,-1.739 -2.997983,-1.594406 -1.269983,-2.3114064 1.728,-0.717 1.063576,-0.5001695 1.783576,1.2398304 z"
     id="path4737"
     inkscape:connector-curvature="0"
     style="fill:#ffac33"
     sodipodi:nodetypes="ccccccccccccsc" />
  <path
     fill="#FFDC5D"
     d="M18.113 15.261l.639 2.538c.258 1.026.069 1.857 1.581 1.915 1.056.04 2.483-1.846 2.225-2.873l-.638-2.538-3.807.958z"
     id="path4739" />
  <path
     fill="#FFCC4D"
     d="M18.113 15.261l.734 2.994c3.132-1.339 3.236-3.719 3.236-3.719l-3.97.725z"
     id="path4741" />
  <path
     d="m 12.729864,3.8681241 c 0,0 -3.012482,1.8607713 -1.663864,5.8158759 l 1.549,3.728 c 1.27,3.052 3,5.239 6.056,3.968 3.057,-1.27 6.278,-5.513 5.008,-8.565 L 22.398,5.729 C 19.435993,-0.83141845 12.729864,3.8681241 12.729864,3.8681241 Z"
     id="path4743"
     inkscape:connector-curvature="0"
     style="fill:#ffdc5d"
     sodipodi:nodetypes="ccccccc" />
  <path
     fill="#BF6952"
     d="M13.699 14.763l-.387.161c-.17.07-.365-.008-.436-.18-.069-.17.01-.364.179-.434l.388-.161c.171-.072.366.01.436.179.071.171-.011.363-.18.435z"
     id="path4745" />
  <path
     fill="#662113"
     d="M13.889 12.162c-.339.141-.729-.021-.87-.359l-.257-.616c-.141-.337.021-.729.361-.869.34-.142.731.021.871.358l.256.616c.14.338-.02.729-.361.87z"
     id="path4747" />
  <path
     fill="#DF1F32"
     d="M14.225 16.272c.306.37.64.68 1 .921 1.326-.765 1.418-1.926 1.418-1.926l-2.355.979-.063.026z"
     id="path4749"
     style="fill:#c1694f;fill-opacity:1" />
  <path
     fill="#77B255"
     d="M16.518 32.367c1.105.007 3.938-.359 5.817-.824-1.457-.994-4.946-3.342-6.46-4.075-1.938-.938-5.562-4.062-6.281-4.812s-2.438-.625-3.34.687c-.641.933-1.499 4.346-.004 7.094 1.747 3.212 4.769 5.539 8.744 5.539 1.05 0 1.978-.134 2.801-.348-2.253-.218-2.606-3.269-1.277-3.261z"
     id="path4755" />
  <path
     fill="#FFDC5D"
     d="M18 36h-2.565c-2.094 0-4.81-1.656-4.368-3.156.44-1.495 1.654-.486 3.434-.486 1 0 2.018.01 2.018.01S17.318 34.824 18 36z"
     id="path4757" />
  <path
     inkscape:connector-curvature="0"
     style="fill:#ffac33;fill-opacity:1;stroke-width:1.80773532"
     d="m 12.352351,3.0981276 c 4.392796,-2.90322282 6.545873,-3.28417656 9.103819,-1.3462844 2.539868,1.925238 4.363078,5.5828857 2.978939,9.0515018 C 23.482426,13.222095 22.407,14.401 22.407,14.401 c 0,0 -1.267966,-0.960811 -1.51908,-1.693631 C 20.570311,11.508582 21.01453,11.749704 20.525005,9.9282882 20.108103,9.0028779 18.285827,9.1279051 18.405517,10.338372 18.614646,12.012191 18.112,12.01 18.112,12.01 L 15.551994,7.1028378 c 0,0 -2.664039,1.6832018 -4.749964,1.5051042 C 10.121115,8.3033898 9.0808136,4.9063005 12.352351,3.0981276 Z"
     id="path28"
     sodipodi:nodetypes="ccccccccccc" />
</svg>
